<?xml version="1.0" encoding="iso-8859-1"?>
<!-- Uploaded to: SVG Repo, www.svgrepo.com, Generator: SVG Repo Mixer Tools -->
<!DOCTYPE svg PUBLIC "-//W3C//DTD SVG 1.1//EN" "http://www.w3.org/Graphics/SVG/1.1/DTD/svg11.dtd">
<svg fill="#000000" height="800px" width="800px" version="1.1" id="Capa_1" xmlns="http://www.w3.org/2000/svg" xmlns:xlink="http://www.w3.org/1999/xlink" 
	 viewBox="0 0 468.065 468.065" xml:space="preserve">
<g>
	<path d="M468.065,234.032c0,129.256-104.776,234.032-234.032,234.032C104.776,468.065,0,363.288,0,234.032
		C0,104.776,104.776,0,234.033,0C363.289,0,468.065,104.776,468.065,234.032z"/>
</g>
</svg>